# Max2Obj Version 4.0 Mar 10th, 2001
#
mtllib ./death.mtl
g
# object Sphere02 to come ...
#
v  0.239323 10.207423 -1.032432
v  0.239323 8.580566 -6.039383
v  -2.703689 8.580566 -5.083140
v  -4.522570 8.580566 -2.579665
v  -4.522570 8.580566 0.514801
v  -2.703690 8.580566 3.018276
v  0.239323 8.580566 3.974519
v  3.182336 8.580566 3.018275
v  5.001217 8.580566 0.514799
v  5.001215 8.580566 -2.579669
v  3.182331 8.580566 -5.083143
v  0.239323 4.321400 -9.133848
v  -4.522570 4.321400 -7.586616
v  -7.465582 4.321400 -3.535908
v  -7.465582 4.321400 1.471043
v  -4.522572 4.321400 5.521750
v  0.239323 4.321400 7.068985
v  5.001218 4.321400 5.521750
v  7.944230 4.321400 1.471040
v  7.944226 4.321400 -3.535913
v  5.001210 4.321400 -7.586620
v  0.239323 -0.943220 -9.133848
v  -4.522570 -0.943220 -7.586616
v  -7.465581 -0.943220 -3.535908
v  -7.465582 -0.943220 1.471043
v  -4.522572 -0.943220 5.521750
v  0.239323 -0.943220 7.068985
v  5.001218 -0.943220 5.521750
v  7.944229 -0.943220 1.471040
v  7.944226 -0.943220 -3.535913
v  5.001209 -0.943220 -7.586620
v  0.239323 -5.202386 -6.039382
v  -2.703688 -5.202386 -5.083139
v  -4.522570 -5.202386 -2.579665
v  -4.522570 -5.202386 0.514801
v  -2.703689 -5.202386 3.018275
v  0.239323 -5.202386 3.974519
v  3.182336 -5.202386 3.018275
v  5.001216 -5.202386 0.514798
v  5.001215 -5.202386 -2.579668
v  3.182330 -5.202386 -5.083143
v  0.239323 -6.829243 -1.032432
# 42 vertices

vt  0.950000 1.000000 1.049531
vt  1.000000 0.800000 1.049531
vt  0.100000 0.800000 1.049531
vt  0.200000 0.800000 1.049531
vt  0.300000 0.800000 1.049531
vt  0.400000 0.800000 1.049531
vt  0.500000 0.800000 1.049531
vt  0.600000 0.800000 1.049531
vt  0.700000 0.800000 1.049531
vt  0.800000 0.800000 1.049531
vt  0.900000 0.800000 1.049531
vt  1.000000 0.600000 1.049531
vt  0.100000 0.600000 1.049531
vt  0.200000 0.600000 1.049531
vt  0.300000 0.600000 1.049531
vt  0.400000 0.600000 1.049531
vt  0.500000 0.600000 1.049531
vt  0.600000 0.600000 1.049531
vt  0.700000 0.600000 1.049531
vt  0.800000 0.600000 1.049531
vt  0.900000 0.600000 1.049531
vt  1.000000 0.400000 1.049531
vt  0.100000 0.400000 1.049531
vt  0.200000 0.400000 1.049531
vt  0.300000 0.400000 1.049531
vt  0.400000 0.400000 1.049531
vt  0.500000 0.400000 1.049531
vt  0.600000 0.400000 1.049531
vt  0.700000 0.400000 1.049531
vt  0.800000 0.400000 1.049531
vt  0.900000 0.400000 1.049531
vt  1.000000 0.200000 1.049531
vt  0.100000 0.200000 1.049531
vt  0.200000 0.200000 1.049531
vt  0.300000 0.200000 1.049531
vt  0.400000 0.200000 1.049531
vt  0.500000 0.200000 1.049531
vt  0.600000 0.200000 1.049531
vt  0.700000 0.200000 1.049531
vt  0.800000 0.200000 1.049531
vt  0.900000 0.200000 1.049531
vt  0.950000 0.000000 1.049531
vt  0.050000 1.000000 1.049531
vt  -0.000000 0.800000 1.049531
vt  0.150000 1.000000 1.049531
vt  0.250000 1.000000 1.049531
vt  0.350000 1.000000 1.049531
vt  0.450000 1.000000 1.049531
vt  0.550000 1.000000 1.049531
vt  0.650000 1.000000 1.049531
vt  0.750000 1.000000 1.049531
vt  0.850000 1.000000 1.049531
vt  -0.000000 0.800000 1.049531
vt  -0.000000 0.600000 1.049531
vt  -0.000000 0.800000 1.049531
vt  -0.000000 0.600000 1.049531
vt  -0.000000 0.400000 1.049531
vt  -0.000000 0.600000 1.049531
vt  -0.000000 0.400000 1.049531
vt  -0.000000 0.200000 1.049531
vt  -0.000000 0.400000 1.049531
vt  0.050000 0.000000 1.049531
vt  -0.000000 0.200000 1.049531
vt  0.150000 0.000000 1.049531
vt  0.250000 0.000000 1.049531
vt  0.350000 0.000000 1.049531
vt  0.450000 0.000000 1.049531
vt  0.550000 0.000000 1.049531
vt  0.650000 0.000000 1.049531
vt  0.750000 0.000000 1.049531
vt  0.850000 0.000000 1.049531
# 71 texture vertices

g Sphere02
usemtl 09_-_Default
f 1/43 2/44 3/3
f 1/45 3/3 4/4
f 1/46 4/4 5/5
f 1/47 5/5 6/6
f 1/48 6/6 7/7
f 1/49 7/7 8/8
f 1/50 8/8 9/9
f 1/51 9/9 10/10
f 1/52 10/10 11/11
f 1/1 11/11 2/2
f 2/53 12/54 13/13
f 2/55 13/13 3/3
f 3/3 13/13 14/14
f 3/3 14/14 4/4
f 4/4 14/14 15/15
f 4/4 15/15 5/5
f 5/5 15/15 16/16
f 5/5 16/16 6/6
f 6/6 16/16 17/17
f 6/6 17/17 7/7
f 7/7 17/17 18/18
f 7/7 18/18 8/8
f 8/8 18/18 19/19
f 8/8 19/19 9/9
f 9/9 19/19 20/20
f 9/9 20/20 10/10
f 10/10 20/20 21/21
f 10/10 21/21 11/11
f 11/11 21/21 12/12
f 11/11 12/12 2/2
f 12/56 22/57 23/23
f 12/58 23/23 13/13
f 13/13 23/23 24/24
f 13/13 24/24 14/14
f 14/14 24/24 25/25
f 14/14 25/25 15/15
f 15/15 25/25 26/26
f 15/15 26/26 16/16
f 16/16 26/26 27/27
f 16/16 27/27 17/17
f 17/17 27/27 28/28
f 17/17 28/28 18/18
f 18/18 28/28 29/29
f 18/18 29/29 19/19
f 19/19 29/29 30/30
f 19/19 30/30 20/20
f 20/20 30/30 31/31
f 20/20 31/31 21/21
f 21/21 31/31 22/22
f 21/21 22/22 12/12
f 22/59 32/60 33/33
f 22/61 33/33 23/23
f 23/23 33/33 34/34
f 23/23 34/34 24/24
f 24/24 34/34 35/35
f 24/24 35/35 25/25
f 25/25 35/35 36/36
f 25/25 36/36 26/26
f 26/26 36/36 37/37
f 26/26 37/37 27/27
f 27/27 37/37 38/38
f 27/27 38/38 28/28
f 28/28 38/38 39/39
f 28/28 39/39 29/29
f 29/29 39/39 40/40
f 29/29 40/40 30/30
f 30/30 40/40 41/41
f 30/30 41/41 31/31
f 31/31 41/41 32/32
f 31/31 32/32 22/22
f 42/62 33/33 32/63
f 42/64 34/34 33/33
f 42/65 35/35 34/34
f 42/66 36/36 35/35
f 42/67 37/37 36/36
f 42/68 38/38 37/37
f 42/69 39/39 38/38
f 42/70 40/40 39/39
f 42/71 41/41 40/40
f 42/42 32/32 41/41
# 80 faces

g
